PID,TARGET,REASON,ENSEMBL,REFSEQ,REMOVE
ENCSR231ENE,ARID3A,weird distribution,y,y,y
ENCSR029IBC,ARNT,weird distribution,n,y,n
ENCSR015TKV,BCLAF1,weird distribution,y,y,y
ENCSR792IYC,BCLAF1,weird distribution,n,y?,n
ENCSR000DNV,BRF1,weird distribution,n,y,n
ENCSR549NPZ,CBX3,weird distribution,n,y,n
ENCSR814KIO,CBX5,weird distribution,y,y,y
ENCSR173EEH,COPS2,weird distribution,y,y,y
ENCSR046HGP,EZH2,weird distribution,n,y,n
ENCSR783QUL,EZH2phsphoT487,weird distribution,y?,y,y
ENCSR584ATA,EZH2phsphoT487,weird distribution,n,y,n
ENCSR094WHO,FOXA1,no preferential bindings,y?,y,y
ENCSR278JQG,IKZF1,no preferential bindings,y?,y,y
ENCSR648INT,ILK,weird distribution,y?,y?,y
ENCSR725ELR,LARP7,weird distribution,y,y,y
ENCSR079WHK,MCM5,weird distribution,y,y,y
ENCSR628APV,MCM5,weird distribution,,y,y
ENCSR460XGV,MNT,weird distribution,y,y,y
ENCSR248IMH,NFRKB,weird distribution,y,y,y
ENCSR764YDL,NR0B1,weird distribution,,y,y
ENCSR170DNV,PHB2,weird distribution,y,y,y
ENCSR019KPC,PLRG,weird distribution,y,y,y
ENCSR760AAY,PRDM12,weird distribution,,y,y
ENCSR543BVU,SOX6,weird distribution,y,y,y
ENCSR814AJH,SRSF9,weird distribution,y,y,y
ENCSR624GNZ,SRSF9,weird distribution,,y,y
ENCSR625ORP,SYNCRIP,weird distribution,,y,y
ENCSR894SXR,TCF12,weird distribution,y,y,y
ENCSR787RVK,TSC22D4,weird distribution,y,y,y
ENCSR479QAJ,U2AF2,weird distribution,y,y,y
ENCSR799GOY,YBX1,weird distribution,y,,y
ENCSR107RHZ,YBX1,weird distribution,,y,y
ENCSR864KNH,YBX1,weird distribution,,y,y
ENCSR751PNN,ZNF112,weird distribution,,y,y
ENCSR985MYI,ZNF114,weird distribution,,y,y
ENCSR138RCE,ZNF132,weird distribution,,y,y
ENCSR534NZI,ZNF195,weird distribution,y,y,y
ENCSR000EUI,ZNF274,weird distribution,,y,y
ENCSR000EUN,ZNF274,weird distribution,,y,y
ENCSR000EVG,ZNF274,weird distribution,,y,y
ENCSR000EVR,ZNF274,weird distribution,,y,y
ENCSR000EVX,ZNF274,weird distribution,,y,y
ENCSR000EWE,ZNF274,weird distribution,,y,y
ENCSR000EWY,ZNF274,weird distribution,,y,y
ENCSR178QVJ,ZNF274,weird distribution,,y,y
ENCSR370NFS,ZNF280A,weird distribution,,y,y
ENCSR096LSN,ZNF311,weird distribution,,y,y
ENCSR396SKI,ZNF331,weird distribution,y,y,y
ENCSR517DDU,ZNF48,weird distribution,,y,y
ENCSR598TIR,ZNF507,weird distribution,y,y,y
ENCSR665KYH,ZNF521,weird distribution,y,y,y
ENCSR767XSF,ZNF555,weird distribution,,y,y
ENCSR217QCK,ZNF697,weird distribution,y,y,y
ENCSR781DPA,ZNF830,weird distribution,,y,y
ENCSR851XLW,ZNF830,weird distribution,,y,n